"id","event_type"
"6","accepted_request"
"11","all_roles_filled"
"9","confirmed_roles"
"8","confirming_roles"
"7","declined_request"
"4","recruitment_status"
"5","requesting_roles"
"2","scenario_contribution"
"1","stage_change"
"3","task_completion"
"10","withdrawn_roles"
