"id","email","hash","salt","name","title","bio","image"
"1","chuck.loong.lee@gmail.com","P8zg+JbltKSNopgV/giiyBfxOov2oBwrIKmWqINyibjoByADNMW/Y2tTqGy4s1Hmz/P+sV4EqyyzkDwBYIEPjA==","iS7qKmjsjYFwj3EngUOZvT1XOr2Vcj/ruouL8faExVGXaaUn+5gungg32pI2mVdy4Cn/jz2MHPSFMfe7uf5U2w==","Chuck Lee","System Engineer","Briefly describe yourself here.","9e5f9e9bbcc9ef85f89397c729fed0ee.jpeg"
"2","joeylimmena@gmail.com","VvNAL0v3RtNObbyZobWiM/2ocFkcLQ4XF/XFoYwTDOZ4VBTl4/gDKaGJquQbBeY8g2ywGmhvzPdaDsaxmGNlHA==","fmFOpUdvBsk0tQJQINX9v+VKRxCTcikZ1++th+uH+WKxveTG9SGlJZSNEWvOlNyGRCB2N2C8KsxE2u40ARl39A==","Joey Limmena","Mechatronics Engineer","Surprisingly, I have yet to make any robots. Please contact me if there are any problems. joeylimmena@gmail.com\
LinkedIn: https://ca.linkedin.com/in/joeylimmena","b69ac468d92b9ccc9a007ebf36baeff0.jpeg"
"3","siddhant_mehta@thecdm.ca","xMm5HHCieWncz9mY1UKuOtkLFSCSGaobgx7pHrW6/I5kAp96oTSR5J++i+EPeF5qA2Z9rnINkByt+2qI2HKVRA==","LW0aQcJ18gP0StiZLT/clBpAF3o4blLbkcN04d4zHrbqgQX01vaJSHlrhSbBO7IhPgmXAKwTzOWMm/ZIb1nIGQ==","Siddhant Mehta","Test Tuber","Briefly describe yourself here.","9b1f0dfa4fdc051d55da7b0323fd4d03.jpeg"
"4","chris.jm.yoon@gmail.com","+LRxguYcyI4Hi3iCCPQ1W/cWihQe7aDgTAVnzwxLedLxe2ejhUlht9ey7Qs/3yIsLOs8h/+6Zupb/MjzYsBfnQ==","aT1TwSF57dpwr0YASoFheSktZjju6q7iRRxLlLACCj11q7fFjIb/T8nyprqzqIBKGBCCuTt+wMizLkyt1Uo2og==","Chris Yoon","Test Tuber","Briefly describe yourself here.",""
"5","terrymoreau@u-turnsystems.com","1EurYelIbAm+K3I4VMuMuoqd8eFgMaygzU1w84QDdHkmH+RQOS1wfaPS6UJ40Wl2ij+93mOIC+FHWBQ7gcfDEg==","0P1LrzxeRZ/OT0nTyfz7ueQZ4GThEt4cIB5a+vD4ZigNfdAYWSjLX+trA+4W79TzmqhY8ZTUGcH3IHmbV5eTvg==","Terry Moreau","Test Tuber","Electronics Engineering for Product Development and R&D.  Patents and IP search.  Reverse Engineering.  Failure Analysis. Embedded Software.  http://u-turnsystems.com",""
"6","micaelee@live.com","sfXyQruQYTU8z14d0OHLVpwtuob/NYNe7/2LdrxN78kGwPSF8RaZlKsSPTzJP9ry3Kl9CUxBEfOr1YD+IcAW4g==","YAQvrbqy31ylhxU801CzpTD2V6/bQ3ipVopCxbe/5fJE6S1Nn4LZb+0pYNwUC1V1FAcg0Pbx5mPuENwjCGWXjg==","Micaelee Hanson","Test Tuber","Briefly describe yourself here.","989cb4789d9fb95bdb911418b4ac8c81.jpeg"
"7","giulioprignolato@gmail.com","j4xRZi88BVePE3wdT961n97oqYqAiBOggJjYHHzk5V1lM6OYoHSsdFckySbv4Dj7x9NUZHEkE7NtYRYROVz2dg==","fPSCUKknUrsFgACmIIuX6jNHP3u0Lfu1ld3G6Qiw8wpX+aqf59BHIkt5MHY9Cnlql6Q0thX/g4Kb6sfUyy9wCQ==","Giulio Pregnolato","Test Tuber / Systems Engineer","In love with too many subjects for my own good.\
Mostly, just happy to help with anything; technical or not.","9079f8429c91805bbe50deec4dcd3022.jpeg"
"8","michael.kouznetsoff@envisioninglabs.com","ejpH2AkHHZHPhSkPMIlIzf/bY1HLT3a61aeOsgmBRl7KkCB7EemJFL2+ZwTeaulj5yx6bs431TFfZjtEZUMh5A==","pP2dMseAVXnHUIBdNNrGbo4jACMUSJPRZhGCX8zHZAqofWiOV/dhJTVoJ/SqNEsmezhKKWZqpKuZSZScWpiqgw==","Michael Kouznetsoff","Test Tuber","Briefly describe yourself here.",""
"9","tom.merenyi@gmail.com","AEmH+5CEV0b/smesCV4H50bcJZKYtbWOSrwuzt/bU6byY+kBhm0P9HAPRAevencAHPwDTh8Wq7UOS5MaZ4uKzg==","AWusBKccvZ8KW4PMLzptIT4JWJDy08UJE3gqWLbqWDwkNFKDGgHqpaDfgsKtR2Hkaj802D0F4vRIE6CCHVsCCg==","Tom Merenyi","Test Tuber","Briefly describe yourself here.",""
"10","mrymobini@gmail.com","Axolhnkesx9xSZbv4I5QfZfOQ71GSbS7JgRiNZzysLV4PqThQf92cSd4cvgfxe6UBQIlNpK92S5q7XP4hPcxGA==","ZbtuSDr3bbASlgIliiNYh35MT/BUmOj5QhggMCICc3CWb1W3RGikwrPrIK5z+p5Pw9NGW3XXpRivjkXy2Tqing==","Maryam Mobini","Test Tuber","Briefly describe yourself here.","2d9b0c63bbc472203f9fb6af362e85ad.png"
"11","yann.serim@mail.mcgill.ca","/+95jK1G0KjaSVt9oDwJ4gWRD9o0UfJvZbFoXjX1X1ozayjHwVeBXQPBiq4zJUZ+RJZ5QALfGK0V0ChDYLUdJg==","i2fTnnYyuXhkhzTHIpZCC4oCyRPziFQHlE3YQ3k5VpbjV/VKECgBMZVpZW+2DhX0apU86RuzK1LLmS4thMTzKg==","Yann Serim","Test Tuber","I am funky chicken\
\
Phone: 778 919 3204\
Email: yann.serim@mail.mcgill.ca","fca36a27a038358e4e0d36a8cd872005.jpeg"
"12","rorystclair@gmail.com","xP9e6rqZQEmT2J5I4y0i8l9707sPbnnHsVat/6v7nYv7JozY8wETTmEJ2uf5tPJiq/XBfhi653zyYi1EKaIybw==","Kas9IAzu0bnRZv8rrV/i2AC7B1U2X5of0hQVBcdqJ/c4fA9CWP7d6WlbOj6VUYuMSdcT7qBxjx6hEHsEyZHylQ==","Rory St Clair","Test Tuber","Briefly describe yourself here.",""
"13","omar.herrera@ubc.ca","haDI0qyGOrVgrw07oX3DvlOms6rDw2se94LD82D9/86cfB1gVKNu5w0bBT0IYWLp/PkN4u72fbL2iIJ18xzw0A==","gCCUyLzroNdEnTq0LlMDb02ENHlVqhk/l0zOt+LVkQO7+qBgkrcEEnsFwlpOoTk6BN+OUv87lUpnyLkBBvbQSA==","Omar","Test Tuber","Briefly describe yourself here.",""
"14","ken.thorne@envisioninglabs.com","qQ15Mo0J94a/aHGKSllfZcij2/yT9WnYtg79JjjwBuCL10W5+b8VQsAq3EeJfltrrSv8iZVjBd5GH6z+yoqtMA==","CQBLdn9YL/7y6FVb09VF5P+NBxgbwsLOMYKR9oz/VDgs0Ii3avV99sR99xPwTUOF/2WKcbJZVbGdgl9fmehhIg==","Ken","Test Tuber","Briefly describe yourself here.",""
"15","oscar.malpica@envisioninglabs.com","/ohXDrWowBQ71S0Op7NWlmWCmA0XAGCpOVIS49vrGfNclpGNT7GXpn+XzhTEyP2x2T/m54WNIK9zPS6RCmwefg==","kaq/cm3I7a6dCGPXI5ls0OKFzScn2L6DUGl5whQBLe/x0fqyUu+n1B/G0O5fEWbmnmlMj/ShxHSvI3whPvkMiA==","Oscar Malpica","Test Tuber","I just wanna play","c6a01dd957aa6836e92ea955fa4cba52.jpeg"
"16","cvekic@shaw.ca","h3xL/lJX024+gdEMywexXT0HGAVAOCGtg3SRcX0K0LSuoWJDuSObrljIK13uNabA3etAs7buLW4NefYwXygBDg==","GpWzWkl3t+ceN0ITZ8x4e7h9R4lawUW92rkPxgn98KQ8nr3NLcc7Q/wPj3jePU8wFdMiHkl38e3OPgjhPcmdiw==","Ivan Cvekic","","",""
"17","danilocgcorreia@gmail.com","OtlXl6xwpMDjhgZIZt9UMyqP9VTndgnc6OETBITLvXm270UvTkijYel1QDMb9no/CTtBkm9rw5HRDQL1YcqbdQ==","9FAT3v6X5a2WIeH4Y6EegD/G7rB8iv0zE9b8f90FgQdo21mz+cNSQSj/lLZKNd4neuFcB3rNAP0BuMAfzMn0Qg==","Danilo Correia","Digital Marketer / Test Tuber","",""
